Project_version3/top_tb.vcd
$date
	Mon Dec 26 18:10:28 2022
$end
$version
	Icarus Verilog
$end
$timescale
	1ps
$end
$scope module top_tb $end
$var wire 16 ! res [15:0] $end
$var wire 4 " opcode [3:0] $end
$var wire 16 # inst [15:0] $end
$var wire 5 $ imm5 [4:0] $end
$var wire 16 % currentPC [15:0] $end
$var wire 16 & SR2_value [15:0] $end
$var wire 3 ' SR2 [2:0] $end
$var wire 16 ( SR1_value [15:0] $end
$var wire 3 ) SR1 [2:0] $end
$var wire 16 * DataOut [15:0] $end
$var wire 16 + DR_value [15:0] $end
$var wire 3 , DR [2:0] $end
$var reg 1 - clk $end
$var reg 1 . reset $end
$scope module uut $end
$var wire 1 - clk $end
$var wire 1 . reset $end
$var wire 1 / z $end
$var wire 16 0 res [15:0] $end
$var wire 1 1 p $end
$var wire 4 2 opcode [3:0] $end
$var wire 16 3 nextPC [15:0] $end
$var wire 1 4 n $end
$var wire 16 5 inst [15:0] $end
$var wire 5 6 imm5 [4:0] $end
$var wire 16 7 imm16 [15:0] $end
$var wire 16 8 currentPC_imm [15:0] $end
$var wire 16 9 currentPC_2 [15:0] $end
$var wire 16 : currentPC [15:0] $end
$var wire 1 ; change $end
$var wire 1 < WriteDateSel $end
$var wire 16 = SR2_value [15:0] $end
$var wire 3 > SR2 [2:0] $end
$var wire 16 ? SR1_value [15:0] $end
$var wire 3 @ SR1 [2:0] $end
$var wire 1 A RegWE $end
$var wire 1 B PCSel $end
$var wire 1 C MemRW $end
$var wire 1 D InstMemRW $end
$var wire 1 E ExtSel $end
$var wire 16 F DataOut [15:0] $end
$var wire 16 G DR_value [15:0] $end
$var wire 3 H DR [2:0] $end
$var wire 16 I B [15:0] $end
$var wire 1 J ALUSrc2Sel $end
$var wire 4 K ALUOp [3:0] $end
$scope module alu $end
$var wire 32 L temp9 [31:0] $end
$var wire 32 M temp8 [31:0] $end
$var wire 32 N temp7 [31:0] $end
$var wire 32 O temp6 [31:0] $end
$var wire 32 P temp5 [31:0] $end
$var wire 32 Q temp4 [31:0] $end
$var wire 32 R temp3 [31:0] $end
$var wire 32 S temp2 [31:0] $end
$var wire 32 T temp15 [31:0] $end
$var wire 32 U temp14 [31:0] $end
$var wire 32 V temp13 [31:0] $end
$var wire 32 W temp12 [31:0] $end
$var wire 32 X temp11 [31:0] $end
$var wire 32 Y temp10 [31:0] $end
$var wire 32 Z temp1 [31:0] $end
$var wire 32 [ temp0 [31:0] $end
$var wire 32 \ mul_res [31:0] $end
$var wire 32 ] add9 [31:0] $end
$var wire 32 ^ add8 [31:0] $end
$var wire 32 _ add7 [31:0] $end
$var wire 32 ` add6 [31:0] $end
$var wire 32 a add5 [31:0] $end
$var wire 32 b add4 [31:0] $end
$var wire 32 c add3 [31:0] $end
$var wire 32 d add2 [31:0] $end
$var wire 32 e add13 [31:0] $end
$var wire 32 f add12 [31:0] $end
$var wire 32 g add11 [31:0] $end
$var wire 32 h add10 [31:0] $end
$var wire 32 i add1 [31:0] $end
$var wire 32 j add0 [31:0] $end
$var wire 16 k B [15:0] $end
$var wire 4 l ALUOp [3:0] $end
$var wire 16 m A [15:0] $end
$var reg 1 4 n $end
$var reg 1 1 p $end
$var reg 16 n res [15:0] $end
$var reg 1 / z $end
$upscope $end
$scope module cu $end
$var wire 1 4 n $end
$var wire 1 1 p $end
$var wire 1 / z $end
$var wire 16 o inst [15:0] $end
$var reg 4 p ALUOp [3:0] $end
$var reg 1 J ALUSrc2Sel $end
$var reg 1 E ExtSel $end
$var reg 1 D InstMemRW $end
$var reg 1 C MemRW $end
$var reg 1 B PCSel $end
$var reg 1 A RegWE $end
$var reg 1 < WriteDateSel $end
$var reg 1 ; change $end
$upscope $end
$scope module ext $end
$var wire 1 E ExtSel $end
$var wire 5 q imm5 [4:0] $end
$var wire 16 r imm16 [15:0] $end
$upscope $end
$scope module im $end
$var wire 1 D InstMemRW $end
$var wire 4 s opcode [3:0] $end
$var wire 16 t inst [15:0] $end
$var wire 5 u imm5 [4:0] $end
$var wire 16 v addr [15:0] $end
$var wire 3 w SR2 [2:0] $end
$var wire 3 x SR1 [2:0] $end
$var wire 3 y DR [2:0] $end
$upscope $end
$scope module m1 $end
$var wire 1 J control $end
$var wire 16 z in1 [15:0] $end
$var wire 16 { out [15:0] $end
$var wire 16 | in0 [15:0] $end
$upscope $end
$scope module m2 $end
$var wire 1 < control $end
$var wire 16 } in0 [15:0] $end
$var wire 16 ~ out [15:0] $end
$var wire 16 !" in1 [15:0] $end
$upscope $end
$scope module m3 $end
$var wire 1 B control $end
$var wire 16 "" in0 [15:0] $end
$var wire 16 #" in1 [15:0] $end
$var wire 16 $" out [15:0] $end
$upscope $end
$scope module memory $end
$var wire 16 %" Addr [15:0] $end
$var wire 16 &" DataIn [15:0] $end
$var wire 1 C MemRW $end
$var reg 16 '" DataOut [15:0] $end
$upscope $end
$scope module pc $end
$var wire 1 ; change $end
$var wire 1 - clk $end
$var wire 16 (" nextPC [15:0] $end
$var wire 1 . reset $end
$var reg 16 )" currentPC [15:0] $end
$upscope $end
$scope module rf $end
$var wire 3 *" DR [2:0] $end
$var wire 16 +" DR_value [15:0] $end
$var wire 1 A RegWE $end
$var wire 3 ," SR1 [2:0] $end
$var wire 16 -" SR1_value [15:0] $end
$var wire 3 ." SR2 [2:0] $end
$var wire 16 /" SR2_value [15:0] $end
$var wire 1 - clk $end
$var reg 16 0" R0 [15:0] $end
$var reg 16 1" R1 [15:0] $end
$var reg 16 2" R2 [15:0] $end
$var reg 16 3" R3 [15:0] $end
$var reg 16 4" R4 [15:0] $end
$var reg 16 5" R5 [15:0] $end
$var reg 16 6" R6 [15:0] $end
$var reg 16 7" R7 [15:0] $end
$var integer 32 8" i [31:0] $end
$upscope $end
$upscope $end
$upscope $end
$enddefinitions $end
#0
$dumpvars
b10000 8"
bx 7"
bx 6"
bx 5"
bx 4"
bx 3"
bx 2"
bx 1"
bx 0"
b0 /"
b0 ."
b0 -"
b0 ,"
b0 +"
b0 *"
b0 )"
b10 ("
b111111 '"
b0 &"
b0 %"
b10 $"
b10 #"
b10 ""
b111111 !"
b0 ~
b0 }
b0 |
b0 {
b0 z
b0 y
b0 x
b0 w
b0 v
b0 u
b0 t
b0 s
b0 r
b0 q
b0 p
b0 o
b0 n
b0 m
b0 l
b0 k
b0 j
b0 i
b0 h
b0 g
b0 f
b0 e
b0 d
b0 c
b0 b
b0 a
b0 `
b0 _
b0 ^
b0 ]
b0 \
b0 [
b0 Z
b0 Y
b0 X
b0 W
b0 V
b0 U
b0 T
b0 S
b0 R
b0 Q
b0 P
b0 O
b0 N
b0 M
b0 L
b0 K
0J
b0 I
b0 H
b0 G
b111111 F
0E
1D
0C
0B
1A
b0 @
b0 ?
b0 >
b0 =
0<
1;
b0 :
b10 9
b10 8
b0 7
b0 6
b0 5
04
b10 3
b0 2
01
b0 0
1/
1.
1-
b0 ,
b0 +
b111111 *
b0 )
b0 (
b0 '
b0 &
b0 %
b0 $
b0 #
b0 "
b0 !
$end
#5000
0-
#10000
b111111 +
b111111 G
b111111 ~
b111111 &"
b111111 +"
b1 )
b1 @
b1 x
b1 ,"
b1 ,
b1 H
b1 y
b1 *"
b1010 "
b1010 2
b1010 s
b1111 K
b1111 l
b1111 p
1E
1<
1J
b100 3
b100 $"
b100 ("
b1010001001100000 #
b1010001001100000 5
b1010001001100000 o
b1010001001100000 t
b100 8
b100 #"
b100 9
b100 ""
b10 %
b10 :
b10 v
b10 )"
b0 7"
b0 6"
b0 5"
b0 4"
b0 3"
b0 2"
b0 1"
b0 0"
1-
0.
#15000
0-
#20000
bx *
bx F
bx !"
bx '"
b111111 \
b111111 f
b111111 ^
b111111 j
b111111 [
b1 I
b1 k
b1 {
0/
11
b111110 !
b111110 0
b111110 n
b111110 }
b111110 %"
b111110 +
b111110 G
b111110 ~
b111110 &"
b111110 +"
b1 7
b1 r
b1 z
b1 $
b1 6
b1 q
b1 u
b111111 &
b111111 =
b111111 |
b111111 /"
b1 '
b1 >
b1 w
b1 ."
b10 "
b10 2
b10 s
b10 K
b10 l
b10 p
0<
b110 3
b110 $"
b110 ("
b10001001100001 #
b10001001100001 5
b10001001100001 o
b10001001100001 t
b1000 8
b1000 #"
b110 9
b110 ""
b100 %
b100 :
b100 v
b100 )"
b111111 (
b111111 ?
b111111 m
b111111 -"
1-
#25000
0-
#30000
b0 I
b0 k
b0 {
b1111111111111110 7
b1111111111111110 r
b1111111111111110 z
b11110 $
b11110 6
b11110 q
b11110 u
b110 '
b110 >
b110 w
b110 ."
b0 )
b0 @
b0 x
b0 ,"
b0 ,
b0 H
b0 y
b0 *"
b1101 "
b1101 2
b1101 s
b1111 K
b1111 l
b1111 p
0A
0J
1B
b100 3
b100 $"
b100 ("
b1101000000011110 #
b1101000000011110 5
b1101000000011110 o
b1101000000011110 t
b100 8
b100 #"
b1000 9
b1000 ""
b110 %
b110 :
b110 v
b110 )"
b111101 +
b111101 G
b111101 ~
b111101 &"
b111101 +"
b0 \
b0 f
b0 ^
b0 j
b0 [
b111101 !
b111101 0
b111101 n
b111101 }
b111101 %"
b0 (
b0 ?
b0 m
b0 -"
b0 &
b0 =
b0 |
b0 /"
b111111 1"
1-
#35000
0-
#40000
b0 T
b0 _
b0 U
b0 V
b0 g
b0 `
b0 W
b0 X
b0 a
b0 Y
b0 L
b0 e
b0 h
b0 b
b0 M
b0 N
b0 c
b0 O
b0 ]
b0 d
b0 P
b111110 \
b111110 f
b111110 ^
b111110 j
b111110 [
b111101 +
b111101 G
b111101 ~
b111101 &"
b111101 +"
b111101 !
b111101 0
b111101 n
b111101 }
b111101 %"
b1 I
b1 k
b1 {
b1 7
b1 r
b1 z
b1 $
b1 6
b1 q
b1 u
b111110 &
b111110 =
b111110 |
b111110 /"
b1 '
b1 >
b1 w
b1 ."
b111110 (
b111110 ?
b111110 m
b111110 -"
b1 )
b1 @
b1 x
b1 ,"
b1 ,
b1 H
b1 y
b1 *"
b10 "
b10 2
b10 s
b10 K
b10 l
b10 p
0B
1A
1J
b110 3
b110 $"
b110 ("
b10001001100001 #
b10001001100001 5
b10001001100001 o
b10001001100001 t
b1000 8
b1000 #"
b110 9
b110 ""
b100 %
b100 :
b100 v
b100 )"
b111110 1"
1-
#45000
0-
#50000
b0 I
b0 k
b0 {
b1111111111111110 7
b1111111111111110 r
b1111111111111110 z
b11110 $
b11110 6
b11110 q
b11110 u
b110 '
b110 >
b110 w
b110 ."
b0 )
b0 @
b0 x
b0 ,"
b0 ,
b0 H
b0 y
b0 *"
b1101 "
b1101 2
b1101 s
b1111 K
b1111 l
b1111 p
0A
0J
1B
b100 3
b100 $"
b100 ("
b1101000000011110 #
b1101000000011110 5
b1101000000011110 o
b1101000000011110 t
b100 8
b100 #"
b1000 9
b1000 ""
b110 %
b110 :
b110 v
b110 )"
b111100 +
b111100 G
b111100 ~
b111100 &"
b111100 +"
b0 \
b0 f
b0 ^
b0 j
b0 [
b111100 !
b111100 0
b111100 n
b111100 }
b111100 %"
b0 (
b0 ?
b0 m
b0 -"
b0 &
b0 =
b0 |
b0 /"
1-
#55000
0-
#60000
b0 T
b0 _
b0 U
b0 V
b0 g
b0 `
b0 W
b0 X
b0 a
b0 Y
b0 L
b0 e
b0 h
b0 b
b0 M
b0 N
b0 c
b0 O
b0 ]
b0 d
b0 P
b111101 \
b111101 f
b111101 ^
b111101 j
b111101 [
b111100 +
b111100 G
b111100 ~
b111100 &"
b111100 +"
b111100 !
b111100 0
b111100 n
b111100 }
b111100 %"
b1 I
b1 k
b1 {
b1 7
b1 r
b1 z
b1 $
b1 6
b1 q
b1 u
b111101 &
b111101 =
b111101 |
b111101 /"
b1 '
b1 >
b1 w
b1 ."
b111101 (
b111101 ?
b111101 m
b111101 -"
b1 )
b1 @
b1 x
b1 ,"
b1 ,
b1 H
b1 y
b1 *"
b10 "
b10 2
b10 s
b10 K
b10 l
b10 p
0B
1A
1J
b110 3
b110 $"
b110 ("
b10001001100001 #
b10001001100001 5
b10001001100001 o
b10001001100001 t
b1000 8
b1000 #"
b110 9
b110 ""
b100 %
b100 :
b100 v
b100 )"
b111101 1"
1-
#65000
0-
#70000
b0 I
b0 k
b0 {
b1111111111111110 7
b1111111111111110 r
b1111111111111110 z
b11110 $
b11110 6
b11110 q
b11110 u
b110 '
b110 >
b110 w
b110 ."
b0 )
b0 @
b0 x
b0 ,"
b0 ,
b0 H
b0 y
b0 *"
b1101 "
b1101 2
b1101 s
b1111 K
b1111 l
b1111 p
0A
0J
1B
b100 3
b100 $"
b100 ("
b1101000000011110 #
b1101000000011110 5
b1101000000011110 o
b1101000000011110 t
b100 8
b100 #"
b1000 9
b1000 ""
b110 %
b110 :
b110 v
b110 )"
b111011 +
b111011 G
b111011 ~
b111011 &"
b111011 +"
b0 \
b0 f
b0 ^
b0 j
b0 [
b111011 !
b111011 0
b111011 n
b111011 }
b111011 %"
b0 (
b0 ?
b0 m
b0 -"
b0 &
b0 =
b0 |
b0 /"
1-
#75000
0-
#80000
b0 T
b0 _
b0 U
b0 V
b0 g
b0 `
b0 W
b0 X
b0 a
b0 Y
b0 L
b0 e
b0 h
b0 b
b0 M
b0 N
b0 c
b0 O
b0 ]
b0 d
b0 P
b111100 \
b111100 f
b111100 ^
b111100 j
b111100 [
b111011 +
b111011 G
b111011 ~
b111011 &"
b111011 +"
b111011 !
b111011 0
b111011 n
b111011 }
b111011 %"
b1 I
b1 k
b1 {
b1 7
b1 r
b1 z
b1 $
b1 6
b1 q
b1 u
b111100 &
b111100 =
b111100 |
b111100 /"
b1 '
b1 >
b1 w
b1 ."
b111100 (
b111100 ?
b111100 m
b111100 -"
b1 )
b1 @
b1 x
b1 ,"
b1 ,
b1 H
b1 y
b1 *"
b10 "
b10 2
b10 s
b10 K
b10 l
b10 p
0B
1A
1J
b110 3
b110 $"
b110 ("
b10001001100001 #
b10001001100001 5
b10001001100001 o
b10001001100001 t
b1000 8
b1000 #"
b110 9
b110 ""
b100 %
b100 :
b100 v
b100 )"
b111100 1"
1-
#85000
0-
#90000
b0 I
b0 k
b0 {
b1111111111111110 7
b1111111111111110 r
b1111111111111110 z
b11110 $
b11110 6
b11110 q
b11110 u
b110 '
b110 >
b110 w
b110 ."
b0 )
b0 @
b0 x
b0 ,"
b0 ,
b0 H
b0 y
b0 *"
b1101 "
b1101 2
b1101 s
b1111 K
b1111 l
b1111 p
0A
0J
1B
b100 3
b100 $"
b100 ("
b1101000000011110 #
b1101000000011110 5
b1101000000011110 o
b1101000000011110 t
b100 8
b100 #"
b1000 9
b1000 ""
b110 %
b110 :
b110 v
b110 )"
b111010 +
b111010 G
b111010 ~
b111010 &"
b111010 +"
b0 \
b0 f
b0 ^
b0 j
b0 [
b111010 !
b111010 0
b111010 n
b111010 }
b111010 %"
b0 (
b0 ?
b0 m
b0 -"
b0 &
b0 =
b0 |
b0 /"
1-
#95000
0-
#100000
b0 T
b0 _
b0 U
b0 V
b0 g
b0 `
b0 W
b0 X
b0 a
b0 Y
b0 L
b0 e
b0 h
b0 b
b0 M
b0 N
b0 c
b0 O
b0 ]
b0 d
b0 P
b111011 \
b111011 f
b111011 ^
b111011 j
b111011 [
b111010 +
b111010 G
b111010 ~
b111010 &"
b111010 +"
b111010 !
b111010 0
b111010 n
b111010 }
b111010 %"
b1 I
b1 k
b1 {
b1 7
b1 r
b1 z
b1 $
b1 6
b1 q
b1 u
b111011 &
b111011 =
b111011 |
b111011 /"
b1 '
b1 >
b1 w
b1 ."
b111011 (
b111011 ?
b111011 m
b111011 -"
b1 )
b1 @
b1 x
b1 ,"
b1 ,
b1 H
b1 y
b1 *"
b10 "
b10 2
b10 s
b10 K
b10 l
b10 p
0B
1A
1J
b110 3
b110 $"
b110 ("
b10001001100001 #
b10001001100001 5
b10001001100001 o
b10001001100001 t
b1000 8
b1000 #"
b110 9
b110 ""
b100 %
b100 :
b100 v
b100 )"
b111011 1"
1-
#105000
0-
#110000
b0 I
b0 k
b0 {
b1111111111111110 7
b1111111111111110 r
b1111111111111110 z
b11110 $
b11110 6
b11110 q
b11110 u
b110 '
b110 >
b110 w
b110 ."
b0 )
b0 @
b0 x
b0 ,"
b0 ,
b0 H
b0 y
b0 *"
b1101 "
b1101 2
b1101 s
b1111 K
b1111 l
b1111 p
0A
0J
1B
b100 3
b100 $"
b100 ("
b1101000000011110 #
b1101000000011110 5
b1101000000011110 o
b1101000000011110 t
b100 8
b100 #"
b1000 9
b1000 ""
b110 %
b110 :
b110 v
b110 )"
b111001 +
b111001 G
b111001 ~
b111001 &"
b111001 +"
b0 \
b0 f
b0 ^
b0 j
b0 [
b111001 !
b111001 0
b111001 n
b111001 }
b111001 %"
b0 (
b0 ?
b0 m
b0 -"
b0 &
b0 =
b0 |
b0 /"
1-
#115000
0-
#120000
b0 T
b0 _
b0 U
b0 V
b0 g
b0 `
b0 W
b0 X
b0 a
b0 Y
b0 L
b0 e
b0 h
b0 b
b0 M
b0 N
b0 c
b0 O
b0 ]
b0 d
b0 P
b111010 \
b111010 f
b111010 ^
b111010 j
b111010 [
b111001 +
b111001 G
b111001 ~
b111001 &"
b111001 +"
b111001 !
b111001 0
b111001 n
b111001 }
b111001 %"
b1 I
b1 k
b1 {
b1 7
b1 r
b1 z
b1 $
b1 6
b1 q
b1 u
b111010 &
b111010 =
b111010 |
b111010 /"
b1 '
b1 >
b1 w
b1 ."
b111010 (
b111010 ?
b111010 m
b111010 -"
b1 )
b1 @
b1 x
b1 ,"
b1 ,
b1 H
b1 y
b1 *"
b10 "
b10 2
b10 s
b10 K
b10 l
b10 p
0B
1A
1J
b110 3
b110 $"
b110 ("
b10001001100001 #
b10001001100001 5
b10001001100001 o
b10001001100001 t
b1000 8
b1000 #"
b110 9
b110 ""
b100 %
b100 :
b100 v
b100 )"
b111010 1"
1-
#125000
0-
#130000
b0 I
b0 k
b0 {
b1111111111111110 7
b1111111111111110 r
b1111111111111110 z
b11110 $
b11110 6
b11110 q
b11110 u
b110 '
b110 >
b110 w
b110 ."
b0 )
b0 @
b0 x
b0 ,"
b0 ,
b0 H
b0 y
b0 *"
b1101 "
b1101 2
b1101 s
b1111 K
b1111 l
b1111 p
0A
0J
1B
b100 3
b100 $"
b100 ("
b1101000000011110 #
b1101000000011110 5
b1101000000011110 o
b1101000000011110 t
b100 8
b100 #"
b1000 9
b1000 ""
b110 %
b110 :
b110 v
b110 )"
b111000 +
b111000 G
b111000 ~
b111000 &"
b111000 +"
b0 \
b0 f
b0 ^
b0 j
b0 [
b111000 !
b111000 0
b111000 n
b111000 }
b111000 %"
b0 (
b0 ?
b0 m
b0 -"
b0 &
b0 =
b0 |
b0 /"
1-
#135000
0-
#140000
b0 T
b0 _
b0 U
b0 V
b0 g
b0 `
b0 W
b0 X
b0 a
b0 Y
b0 L
b0 e
b0 h
b0 b
b0 M
b0 N
b0 c
b0 O
b0 ]
b0 d
b0 P
b111001 \
b111001 f
b111001 ^
b111001 j
b111001 [
b111000 +
b111000 G
b111000 ~
b111000 &"
b111000 +"
b111000 !
b111000 0
b111000 n
b111000 }
b111000 %"
b1 I
b1 k
b1 {
b1 7
b1 r
b1 z
b1 $
b1 6
b1 q
b1 u
b111001 &
b111001 =
b111001 |
b111001 /"
b1 '
b1 >
b1 w
b1 ."
b111001 (
b111001 ?
b111001 m
b111001 -"
b1 )
b1 @
b1 x
b1 ,"
b1 ,
b1 H
b1 y
b1 *"
b10 "
b10 2
b10 s
b10 K
b10 l
b10 p
0B
1A
1J
b110 3
b110 $"
b110 ("
b10001001100001 #
b10001001100001 5
b10001001100001 o
b10001001100001 t
b1000 8
b1000 #"
b110 9
b110 ""
b100 %
b100 :
b100 v
b100 )"
b111001 1"
1-
#145000
0-
#150000
b0 I
b0 k
b0 {
b1111111111111110 7
b1111111111111110 r
b1111111111111110 z
b11110 $
b11110 6
b11110 q
b11110 u
b110 '
b110 >
b110 w
b110 ."
b0 )
b0 @
b0 x
b0 ,"
b0 ,
b0 H
b0 y
b0 *"
b1101 "
b1101 2
b1101 s
b1111 K
b1111 l
b1111 p
0A
0J
1B
b100 3
b100 $"
b100 ("
b1101000000011110 #
b1101000000011110 5
b1101000000011110 o
b1101000000011110 t
b100 8
b100 #"
b1000 9
b1000 ""
b110 %
b110 :
b110 v
b110 )"
b110111 +
b110111 G
b110111 ~
b110111 &"
b110111 +"
b0 \
b0 f
b0 ^
b0 j
b0 [
b110111 !
b110111 0
b110111 n
b110111 }
b110111 %"
b0 (
b0 ?
b0 m
b0 -"
b0 &
b0 =
b0 |
b0 /"
1-
#155000
0-
#160000
b0 T
b0 _
b0 U
b0 V
b0 g
b0 `
b0 W
b0 X
b0 a
b0 Y
b0 L
b0 e
b0 h
b0 b
b0 M
b0 N
b0 c
b0 O
b0 ]
b0 d
b0 P
b111000 \
b111000 f
b111000 ^
b111000 j
b111000 [
b110111 +
b110111 G
b110111 ~
b110111 &"
b110111 +"
b110111 !
b110111 0
b110111 n
b110111 }
b110111 %"
b1 I
b1 k
b1 {
b1 7
b1 r
b1 z
b1 $
b1 6
b1 q
b1 u
b111000 &
b111000 =
b111000 |
b111000 /"
b1 '
b1 >
b1 w
b1 ."
b111000 (
b111000 ?
b111000 m
b111000 -"
b1 )
b1 @
b1 x
b1 ,"
b1 ,
b1 H
b1 y
b1 *"
b10 "
b10 2
b10 s
b10 K
b10 l
b10 p
0B
1A
1J
b110 3
b110 $"
b110 ("
b10001001100001 #
b10001001100001 5
b10001001100001 o
b10001001100001 t
b1000 8
b1000 #"
b110 9
b110 ""
b100 %
b100 :
b100 v
b100 )"
b111000 1"
1-
#165000
0-
#170000
b0 I
b0 k
b0 {
b1111111111111110 7
b1111111111111110 r
b1111111111111110 z
b11110 $
b11110 6
b11110 q
b11110 u
b110 '
b110 >
b110 w
b110 ."
b0 )
b0 @
b0 x
b0 ,"
b0 ,
b0 H
b0 y
b0 *"
b1101 "
b1101 2
b1101 s
b1111 K
b1111 l
b1111 p
0A
0J
1B
b100 3
b100 $"
b100 ("
b1101000000011110 #
b1101000000011110 5
b1101000000011110 o
b1101000000011110 t
b100 8
b100 #"
b1000 9
b1000 ""
b110 %
b110 :
b110 v
b110 )"
b110110 +
b110110 G
b110110 ~
b110110 &"
b110110 +"
b0 \
b0 f
b0 ^
b0 j
b0 [
b110110 !
b110110 0
b110110 n
b110110 }
b110110 %"
b0 (
b0 ?
b0 m
b0 -"
b0 &
b0 =
b0 |
b0 /"
1-
#175000
0-
#180000
b0 T
b0 _
b0 U
b0 V
b0 g
b0 `
b0 W
b0 X
b0 a
b0 Y
b0 L
b0 e
b0 h
b0 b
b0 M
b0 N
b0 c
b0 O
b0 ]
b0 d
b0 P
b110111 \
b110111 f
b110111 ^
b110111 j
b110111 [
b110110 +
b110110 G
b110110 ~
b110110 &"
b110110 +"
b110110 !
b110110 0
b110110 n
b110110 }
b110110 %"
b1 I
b1 k
b1 {
b1 7
b1 r
b1 z
b1 $
b1 6
b1 q
b1 u
b110111 &
b110111 =
b110111 |
b110111 /"
b1 '
b1 >
b1 w
b1 ."
b110111 (
b110111 ?
b110111 m
b110111 -"
b1 )
b1 @
b1 x
b1 ,"
b1 ,
b1 H
b1 y
b1 *"
b10 "
b10 2
b10 s
b10 K
b10 l
b10 p
0B
1A
1J
b110 3
b110 $"
b110 ("
b10001001100001 #
b10001001100001 5
b10001001100001 o
b10001001100001 t
b1000 8
b1000 #"
b110 9
b110 ""
b100 %
b100 :
b100 v
b100 )"
b110111 1"
1-
#185000
0-
#190000
b0 I
b0 k
b0 {
b1111111111111110 7
b1111111111111110 r
b1111111111111110 z
b11110 $
b11110 6
b11110 q
b11110 u
b110 '
b110 >
b110 w
b110 ."
b0 )
b0 @
b0 x
b0 ,"
b0 ,
b0 H
b0 y
b0 *"
b1101 "
b1101 2
b1101 s
b1111 K
b1111 l
b1111 p
0A
0J
1B
b100 3
b100 $"
b100 ("
b1101000000011110 #
b1101000000011110 5
b1101000000011110 o
b1101000000011110 t
b100 8
b100 #"
b1000 9
b1000 ""
b110 %
b110 :
b110 v
b110 )"
b110101 +
b110101 G
b110101 ~
b110101 &"
b110101 +"
b0 \
b0 f
b0 ^
b0 j
b0 [
b110101 !
b110101 0
b110101 n
b110101 }
b110101 %"
b0 (
b0 ?
b0 m
b0 -"
b0 &
b0 =
b0 |
b0 /"
1-
#195000
0-
#200000
b0 T
b0 _
b0 U
b0 V
b0 g
b0 `
b0 W
b0 X
b0 a
b0 Y
b0 L
b0 e
b0 h
b0 b
b0 M
b0 N
b0 c
b0 O
b0 ]
b0 d
b0 P
b110110 \
b110110 f
b110110 ^
b110110 j
b110110 [
b110101 +
b110101 G
b110101 ~
b110101 &"
b110101 +"
b110101 !
b110101 0
b110101 n
b110101 }
b110101 %"
b1 I
b1 k
b1 {
b1 7
b1 r
b1 z
b1 $
b1 6
b1 q
b1 u
b110110 &
b110110 =
b110110 |
b110110 /"
b1 '
b1 >
b1 w
b1 ."
b110110 (
b110110 ?
b110110 m
b110110 -"
b1 )
b1 @
b1 x
b1 ,"
b1 ,
b1 H
b1 y
b1 *"
b10 "
b10 2
b10 s
b10 K
b10 l
b10 p
0B
1A
1J
b110 3
b110 $"
b110 ("
b10001001100001 #
b10001001100001 5
b10001001100001 o
b10001001100001 t
b1000 8
b1000 #"
b110 9
b110 ""
b100 %
b100 :
b100 v
b100 )"
b110110 1"
1-
#205000
0-
#210000
b0 I
b0 k
b0 {
b1111111111111110 7
b1111111111111110 r
b1111111111111110 z
b11110 $
b11110 6
b11110 q
b11110 u
b110 '
b110 >
b110 w
b110 ."
b0 )
b0 @
b0 x
b0 ,"
b0 ,
b0 H
b0 y
b0 *"
b1101 "
b1101 2
b1101 s
b1111 K
b1111 l
b1111 p
0A
0J
1B
b100 3
b100 $"
b100 ("
b1101000000011110 #
b1101000000011110 5
b1101000000011110 o
b1101000000011110 t
b100 8
b100 #"
b1000 9
b1000 ""
b110 %
b110 :
b110 v
b110 )"
b110100 +
b110100 G
b110100 ~
b110100 &"
b110100 +"
b0 \
b0 f
b0 ^
b0 j
b0 [
b110100 !
b110100 0
b110100 n
b110100 }
b110100 %"
b0 (
b0 ?
b0 m
b0 -"
b0 &
b0 =
b0 |
b0 /"
1-
#215000
0-
#220000
b0 T
b0 _
b0 U
b0 V
b0 g
b0 `
b0 W
b0 X
b0 a
b0 Y
b0 L
b0 e
b0 h
b0 b
b0 M
b0 N
b0 c
b0 O
b0 ]
b0 d
b0 P
b110101 \
b110101 f
b110101 ^
b110101 j
b110101 [
b110100 +
b110100 G
b110100 ~
b110100 &"
b110100 +"
b110100 !
b110100 0
b110100 n
b110100 }
b110100 %"
b1 I
b1 k
b1 {
b1 7
b1 r
b1 z
b1 $
b1 6
b1 q
b1 u
b110101 &
b110101 =
b110101 |
b110101 /"
b1 '
b1 >
b1 w
b1 ."
b110101 (
b110101 ?
b110101 m
b110101 -"
b1 )
b1 @
b1 x
b1 ,"
b1 ,
b1 H
b1 y
b1 *"
b10 "
b10 2
b10 s
b10 K
b10 l
b10 p
0B
1A
1J
b110 3
b110 $"
b110 ("
b10001001100001 #
b10001001100001 5
b10001001100001 o
b10001001100001 t
b1000 8
b1000 #"
b110 9
b110 ""
b100 %
b100 :
b100 v
b100 )"
b110101 1"
1-
#225000
0-
#230000
b0 I
b0 k
b0 {
b1111111111111110 7
b1111111111111110 r
b1111111111111110 z
b11110 $
b11110 6
b11110 q
b11110 u
b110 '
b110 >
b110 w
b110 ."
b0 )
b0 @
b0 x
b0 ,"
b0 ,
b0 H
b0 y
b0 *"
b1101 "
b1101 2
b1101 s
b1111 K
b1111 l
b1111 p
0A
0J
1B
b100 3
b100 $"
b100 ("
b1101000000011110 #
b1101000000011110 5
b1101000000011110 o
b1101000000011110 t
b100 8
b100 #"
b1000 9
b1000 ""
b110 %
b110 :
b110 v
b110 )"
b110011 +
b110011 G
b110011 ~
b110011 &"
b110011 +"
b0 \
b0 f
b0 ^
b0 j
b0 [
b110011 !
b110011 0
b110011 n
b110011 }
b110011 %"
b0 (
b0 ?
b0 m
b0 -"
b0 &
b0 =
b0 |
b0 /"
1-
#235000
0-
#240000
b0 T
b0 _
b0 U
b0 V
b0 g
b0 `
b0 W
b0 X
b0 a
b0 Y
b0 L
b0 e
b0 h
b0 b
b0 M
b0 N
b0 c
b0 O
b0 ]
b0 d
b0 P
b110100 \
b110100 f
b110100 ^
b110100 j
b110100 [
b110011 +
b110011 G
b110011 ~
b110011 &"
b110011 +"
b110011 !
b110011 0
b110011 n
b110011 }
b110011 %"
b1 I
b1 k
b1 {
b1 7
b1 r
b1 z
b1 $
b1 6
b1 q
b1 u
b110100 &
b110100 =
b110100 |
b110100 /"
b1 '
b1 >
b1 w
b1 ."
b110100 (
b110100 ?
b110100 m
b110100 -"
b1 )
b1 @
b1 x
b1 ,"
b1 ,
b1 H
b1 y
b1 *"
b10 "
b10 2
b10 s
b10 K
b10 l
b10 p
0B
1A
1J
b110 3
b110 $"
b110 ("
b10001001100001 #
b10001001100001 5
b10001001100001 o
b10001001100001 t
b1000 8
b1000 #"
b110 9
b110 ""
b100 %
b100 :
b100 v
b100 )"
b110100 1"
1-
#245000
0-
