Project_version2/top_tb.vcd
$date
	Sun Dec 25 16:43:49 2022
$end
$version
	Icarus Verilog
$end
$timescale
	1ps
$end
$scope module top_tb $end
$var reg 1 ! clk $end
$var reg 1 " rst_n $end
$scope module uut $end
$var wire 1 ! clk $end
$var wire 3 # in_DR [2:0] $end
$var wire 3 $ in_SR1 [2:0] $end
$var wire 3 % in_SR2 [2:0] $end
$var wire 16 & in_imm [15:0] $end
$var wire 5 ' in_type [4:0] $end
$var wire 16 ( ip [15:0] $end
$var wire 16 ) next_ip [15:0] $end
$var wire 1 " rst_n $end
$var wire 5 * type [4:0] $end
$var wire 16 + inst [15:0] $end
$var wire 16 , imm [15:0] $end
$var wire 3 - SR2 [2:0] $end
$var wire 3 . SR1 [2:0] $end
$var wire 3 / DR [2:0] $end
$scope module Exe $end
$var wire 3 0 DR [2:0] $end
$var wire 16 1 DR_value [15:0] $end
$var wire 16 2 IP [15:0] $end
$var wire 3 3 SR1 [2:0] $end
$var wire 3 4 SR2 [2:0] $end
$var wire 1 ! clk $end
$var wire 16 5 imm [15:0] $end
$var wire 16 6 next_IP [15:0] $end
$var wire 1 " rst_n $end
$var wire 16 7 temp [15:0] $end
$var wire 5 8 type [4:0] $end
$var wire 16 9 inst [15:0] $end
$var wire 16 : SR2_value [15:0] $end
$var wire 16 ; SR1_value [15:0] $end
$var reg 1 < n $end
$var reg 1 = p $end
$var reg 1 > we $end
$var reg 1 ? z $end
$scope module alu $end
$var wire 16 @ IP [15:0] $end
$var wire 16 A and_res [15:0] $end
$var wire 16 B and_res_imm [15:0] $end
$var wire 16 C div_res [15:0] $end
$var wire 16 D imm [15:0] $end
$var wire 1 E n $end
$var wire 16 F next_IP [15:0] $end
$var wire 16 G not_res [15:0] $end
$var wire 16 H or_res [15:0] $end
$var wire 16 I or_res_imm [15:0] $end
$var wire 1 J p $end
$var wire 16 K xor_res [15:0] $end
$var wire 16 L xor_res_imm [15:0] $end
$var wire 1 M z $end
$var wire 32 N temp9 [31:0] $end
$var wire 32 O temp8 [31:0] $end
$var wire 32 P temp7 [31:0] $end
$var wire 32 Q temp6 [31:0] $end
$var wire 32 R temp5 [31:0] $end
$var wire 32 S temp4 [31:0] $end
$var wire 32 T temp3 [31:0] $end
$var wire 32 U temp2 [31:0] $end
$var wire 32 V temp15 [31:0] $end
$var wire 32 W temp14 [31:0] $end
$var wire 32 X temp13 [31:0] $end
$var wire 32 Y temp12 [31:0] $end
$var wire 32 Z temp11 [31:0] $end
$var wire 32 [ temp10 [31:0] $end
$var wire 32 \ temp1 [31:0] $end
$var wire 32 ] temp0 [31:0] $end
$var wire 16 ^ sub_res_imm [15:0] $end
$var wire 16 _ sub_res [15:0] $end
$var wire 16 ` shr_res_ar [15:0] $end
$var wire 16 a shr_res [15:0] $end
$var wire 16 b shl_res_al [15:0] $end
$var wire 16 c shl_res [15:0] $end
$var wire 16 d regB [15:0] $end
$var wire 16 e regA [15:0] $end
$var wire 16 f opcode [15:0] $end
$var wire 16 g mul_res [15:0] $end
$var wire 16 h add_res_imm [15:0] $end
$var wire 16 i add_res [15:0] $end
$var wire 32 j add9 [31:0] $end
$var wire 32 k add8 [31:0] $end
$var wire 32 l add7 [31:0] $end
$var wire 32 m add6 [31:0] $end
$var wire 32 n add5 [31:0] $end
$var wire 32 o add4 [31:0] $end
$var wire 32 p add3 [31:0] $end
$var wire 32 q add2 [31:0] $end
$var wire 32 r add13 [31:0] $end
$var wire 32 s add12 [31:0] $end
$var wire 32 t add11 [31:0] $end
$var wire 32 u add10 [31:0] $end
$var wire 32 v add1 [31:0] $end
$var wire 32 w add0 [31:0] $end
$var wire 4 x ALUop [3:0] $end
$var reg 1 y next_n $end
$var reg 1 z next_p $end
$var reg 1 { next_z $end
$var reg 16 | out_res [15:0] $end
$upscope $end
$scope module ctrl2 $end
$var wire 16 } IP [15:0] $end
$var wire 16 ~ imm [15:0] $end
$var wire 1 < n $end
$var wire 16 !" next_IP [15:0] $end
$var wire 16 "" next_IP2 [15:0] $end
$var wire 1 = p $end
$var wire 1 ? z $end
$var wire 16 #" opcode [15:0] $end
$var wire 4 $" control_code [3:0] $end
$var reg 8 %" extend_8b [7:0] $end
$var reg 17 &" extend_imm [16:0] $end
$var reg 1 '" judge_BR $end
$var reg 1 (" judge_mode $end
$var reg 1 )" judge_n $end
$var reg 1 *" judge_p $end
$var reg 1 +" judge_z $end
$var reg 16 ," temp_next_ip [15:0] $end
$upscope $end
$scope module regfile $end
$var wire 1 ! clk $end
$var wire 3 -" reg1 [2:0] $end
$var wire 3 ." reg2 [2:0] $end
$var wire 3 /" regw [2:0] $end
$var wire 16 0" regw_value [15:0] $end
$var wire 1 " rst_bar $end
$var wire 1 > we $end
$var reg 16 1" R0 [15:0] $end
$var reg 16 2" R1 [15:0] $end
$var reg 16 3" R2 [15:0] $end
$var reg 16 4" R3 [15:0] $end
$var reg 16 5" R4 [15:0] $end
$var reg 16 6" R5 [15:0] $end
$var reg 16 7" R6 [15:0] $end
$var reg 16 8" R7 [15:0] $end
$var reg 16 9" reg1_value [15:0] $end
$var reg 16 :" reg2_value [15:0] $end
$upscope $end
$upscope $end
$scope module Id $end
$var wire 16 ;" inst [15:0] $end
$var reg 3 <" DR [2:0] $end
$var reg 3 =" SR1 [2:0] $end
$var reg 3 >" SR2 [2:0] $end
$var reg 5 ?" extend_5b [4:0] $end
$var reg 8 @" extend_8b [7:0] $end
$var reg 16 A" imm [15:0] $end
$var reg 5 B" type [4:0] $end
$upscope $end
$scope module If $end
$var wire 16 C" IP [15:0] $end
$var wire 16 D" Next_IP [15:0] $end
$var wire 1 ! clk $end
$var wire 1 " rst_n $end
$var reg 16 E" inst [15:0] $end
$var reg 16 F" ip [15:0] $end
$var reg 16 G" next_ip [15:0] $end
$upscope $end
$upscope $end
$upscope $end
$enddefinitions $end
#0
$dumpvars
b1 G"
b0 F"
b11001001100000 E"
bx D"
bx C"
b111 B"
b0 A"
b0 @"
b0 ?"
b0 >"
b1 ="
b1 <"
b11001001100000 ;"
b0 :"
b0 9"
b0 8"
b0 7"
b0 6"
b0 5"
b0 4"
b0 3"
b0 2"
b0 1"
b0 0"
b1 /"
b0 ."
b1 -"
bx ,"
x+"
x*"
x)"
x("
x'"
bx &"
bx %"
b11 $"
b11001001100000 #"
bx ""
bx !"
b0 ~
bx }
b0 |
1{
0z
0y
b11 x
b0 w
b0 v
b0 u
b0 t
b0 s
b0 r
b0 q
b0 p
b0 o
b0 n
b0 m
b0 l
b0 k
b0 j
b0 i
b0 h
b0 g
b11001001100000 f
b0 e
b0 d
b0 c
b0 b
b0 a
b0 `
b0 _
b0 ^
b0 ]
b0 \
b0 [
b0 Z
b0 Y
b0 X
b0 W
b0 V
b0 U
b0 T
b0 S
b0 R
b0 Q
b0 P
b0 O
b0 N
xM
b0 L
b0 K
xJ
b0 I
b0 H
b1111111111111111 G
bx F
xE
b0 D
bz C
b0 B
b0 A
bx @
x?
1>
x=
x<
b0 ;
b0 :
b11001001100000 9
b111 8
bx 7
bx 6
b0 5
b0 4
b1 3
bx 2
b0 1
b1 0
b1 /
b1 .
b0 -
b0 ,
b11001001100000 +
b111 *
bx )
bx (
b111 '
b0 &
b0 %
b1 $
b1 #
0"
0!
$end
#5000
1!
#10000
0!
1"
#15000
b10 G"
b1 F"
1!
#20000
0!
#25000
b11 G"
b10 F"
b10 #
b10 0
b10 /"
b10 /
b10 <"
b10 $
b10 3
b10 -"
b10 .
b10 ="
b111 '
b111 8
b111 *
b111 B"
b11010010100000 +
b11010010100000 9
b11010010100000 f
b11010010100000 #"
b11010010100000 ;"
b11010010100000 E"
1!
#30000
0!
#35000
b0xxxxxxxxxxxxxxx `
b0xxxxxxxxxxxxxxx a
bx0 b
bx0 c
bx K
bx H
b0x B
bx G
bx _
bx i
bx ;
bx e
bx 9"
bx 2"
b100 G"
b11 F"
0{
1z
bx 1
bx 0"
bx |
bx ^
bx1 I
bx L
b0 $"
b0 x
bx h
b1 &
b1 5
b1 D
b1 ~
b1 ,
b1 A"
b1 ?"
b1 #
b1 0
b1 /"
b1 /
b1 <"
b1 $
b1 3
b1 -"
b1 .
b1 ="
b111 '
b111 8
b111 *
b111 B"
b1001100001 +
b1001100001 9
b1001100001 f
b1001100001 #"
b1001100001 ;"
b1001100001 E"
1!
#40000
0!
#45000
bx 3"
b101 G"
b100 F"
b0xxxxxxxxxxxxxxx `
bx0 b
b0xxxxxxxxxxxxxxx a
bx0 c
bx 1
bx 0"
bx |
bx K
bx H
bx G
b0xx B
bx11 I
bx L
bx ^
bx _
bx h
bx i
bx ;
bx e
bx 9"
b11 ?"
b11 &
b11 5
b11 D
b11 ~
b11 ,
b11 A"
b10 #
b10 0
b10 /"
b10 /
b10 <"
b10 $
b10 3
b10 -"
b10 .
b10 ="
b111 '
b111 8
b111 *
b111 B"
b10010100011 +
b10010100011 9
b10010100011 f
b10010100011 #"
b10010100011 ;"
b10010100011 E"
1!
#50000
0!
#55000
bx 4"
b110 G"
b101 F"
bx g
b0xxxxxxxxxxxxxxxx000000000000000 V
bx l
b0xxxxxxxxxxxxxxxx00000000000000 W
b0xxxxxxxxxxxxxxxx0000000000000 X
bx t
bx m
b0xxxxxxxxxxxxxxxx000000000000 Y
b0xxxxxxxxxxxxxxxx00000000000 Z
bx n
b0xxxxxxxxxxxxxxxx0000000000 [
b0xxxxxxxxxxxxxxxx000000000 N
bx r
bx u
bx o
b0xxxxxxxxxxxxxxxx00000000 O
b0xxxxxxxxxxxxxxxx0000000 P
bx p
b0xxxxxxxxxxxxxxxx000000 Q
b0xxxxxxxxxxxxxxxx00000 R
bx j
bx q
b0xxxxxxxxxxxxxxxx0000 S
b0xxxxxxxxxxxxxxxx000 T
bx v
b0xxxxxxxxxxxxxxxx00 U
b0xxxxxxxxxxxxxxxx0 \
bx s
bx k
bx w
b0xxxxxxxxxxxxxxxx ]
bx A
b0 B
bx I
bx :
bx d
bx :"
b1 %
b1 4
b1 ."
b1 -
b1 >"
b0 ?"
b0 &
b0 5
b0 D
b0 ~
b0 ,
b0 A"
b11 #
b11 0
b11 /"
b11 /
b11 <"
b10 $
b10 3
b10 -"
b10 .
b10 ="
b110 '
b110 8
b110 *
b110 B"
b11010000001 +
b11010000001 9
b11010000001 f
b11010000001 #"
b11010000001 ;"
b11010000001 E"
1!
#60000
0!
#65000
b111 G"
b110 F"
b0 g
b0 r
b0 t
b0 l
b0 V
b0 W
b0 m
b0 X
b0 Y
b0 u
b0 n
b0 Z
b0 [
b0 o
b0 N
b0 O
b0 s
b0 j
b0 p
b0 P
b0 Q
b0 q
b0 R
b0 S
b0 k
b0 v
b0 T
b0 U
b0 w
b0 \
b0 ]
b0 A
b0 :
b0 d
b0 :"
b1 $"
b1 x
b1 #
b1 0
b1 /"
b1 /
b1 <"
b0 %
b0 4
b0 ."
b0 -
b0 >"
b1 $
b1 3
b1 -"
b1 .
b1 ="
b100 '
b100 8
b100 *
b100 B"
b1001000000000 +
b1001000000000 9
b1001000000000 f
b1001000000000 #"
b1001000000000 ;"
b1001000000000 E"
1!
#70000
0!
#75000
b1000 G"
b111 F"
bx g
b0xxxxxxxxxxxxxxxx000000000000000 V
bx l
b0xxxxxxxxxxxxxxxx00000000000000 W
b0xxxxxxxxxxxxxxxx0000000000000 X
bx t
bx m
b0xxxxxxxxxxxxxxxx000000000000 Y
b0xxxxxxxxxxxxxxxx00000000000 Z
bx n
b0xxxxxxxxxxxxxxxx0000000000 [
b0xxxxxxxxxxxxxxxx000000000 N
bx r
bx u
bx o
b0xxxxxxxxxxxxxxxx00000000 O
b0xxxxxxxxxxxxxxxx0000000 P
bx p
b0xxxxxxxxxxxxxxxx000000 Q
b0xxxxxxxxxxxxxxxx00000 R
bx j
bx q
b0xxxxxxxxxxxxxxxx0000 S
b0xxxxxxxxxxxxxxxx000 T
bx v
b0xxxxxxxxxxxxxxxx00 U
b0xxxxxxxxxxxxxxxx0 \
bx s
bx k
bx w
b0xxxxxxxxxxxxxxxx ]
bx A
bx :
bx d
bx :"
b10 $"
b10 x
b11 %
b11 4
b11 ."
b11 -
b11 >"
b1 #
b1 0
b1 /"
b1 /
b1 <"
b10 $
b10 3
b10 -"
b10 .
b10 ="
b110 '
b110 8
b110 *
b110 B"
b10001010000011 +
b10001010000011 9
b10001010000011 f
b10001010000011 #"
b10001010000011 ;"
b10001010000011 E"
1!
#80000
0!
#85000
b1001 G"
b1000 F"
b110 $"
b110 x
b11 #
b11 0
b11 /"
b11 /
b11 <"
b1 %
b1 4
b1 ."
b1 -
b1 >"
b10 $
b10 3
b10 -"
b10 .
b10 ="
b110 '
b110 8
b110 *
b110 B"
b110011010000001 +
b110011010000001 9
b110011010000001 f
b110011010000001 #"
b110011010000001 ;"
b110011010000001 E"
1!
#90000
0!
#95000
b1010 G"
b1001 F"
b100 $"
b100 x
b1 #
b1 0
b1 /"
b1 /
b1 <"
b1 %
b1 4
b1 ."
b1 -
b1 >"
b10 $
b10 3
b10 -"
b10 .
b10 ="
b110 '
b110 8
b110 *
b110 B"
b100001010000001 +
b100001010000001 9
b100001010000001 f
b100001010000001 #"
b100001010000001 ;"
b100001010000001 E"
1!
#100000
0!
#105000
b1011 G"
b1010 F"
b101 $"
b101 x
b1 #
b1 0
b1 /"
b1 /
b1 <"
b10 %
b10 4
b10 ."
b10 -
b10 >"
b1 $
b1 3
b1 -"
b1 .
b1 ="
b110 '
b110 8
b110 *
b110 B"
b101001001000010 +
b101001001000010 9
b101001001000010 f
b101001001000010 #"
b101001001000010 ;"
b101001001000010 E"
1!
#110000
0!
#115000
b0 ^
b0 _
b0 h
b0 i
0z
1{
b0 `
b0 a
b0 b
b0 c
b0 L
b0 K
b0 I
b0 H
b1111111111111111 G
b0 ;
b0 e
b0 9"
b0 3"
b1100 G"
b1011 F"
b0 g
b0 r
b0 t
b0 l
b0 V
b0 W
b0 m
b0 X
b0 Y
b0 u
b0 n
b0 Z
b0 [
b0 o
b0 N
b0 O
b0 s
b0 j
b0 p
b0 P
b0 Q
b0 q
b0 R
b0 S
b0 k
b0 v
b0 T
b0 U
b0 w
b0 \
b0 ]
b0 A
b0 1
b0 0"
b0 |
b0 :
b0 d
b0 :"
b1000 $"
b1000 x
b10 #
b10 0
b10 /"
b10 /
b10 <"
b0 %
b0 4
b0 ."
b0 -
b0 >"
b10 $
b10 3
b10 -"
b10 .
b10 ="
b100 '
b100 8
b100 *
b100 B"
b1000010100000000 +
b1000010100000000 9
b1000010100000000 f
b1000010100000000 #"
b1000010100000000 ;"
b1000010100000000 E"
1!
#120000
0!
#125000
b0 4"
b1101 G"
b1100 F"
1{
0z
b0 1
b0 0"
b0 |
b0 `
b0 b
b0 a
b0 c
b0 L
b0 K
b0 I
b0 H
b1111111111111111 G
b0 ^
b0 _
b0 h
b0 i
b0 ;
b0 e
b0 9"
b1001 $"
b1001 x
b11 #
b11 0
b11 /"
b11 /
b11 <"
b11 $
b11 3
b11 -"
b11 .
b11 ="
b100 '
b100 8
b100 *
b100 B"
b1001011000000000 +
b1001011000000000 9
b1001011000000000 f
b1001011000000000 #"
b1001011000000000 ;"
b1001011000000000 E"
1!
#130000
0!
#135000
b0xxxxxxxxxxxxxxx `
bx0 b
b0xxxxxxxxxxxxxxx a
bx0 c
bx K
bx H
b0xxxxxxxxxxxxx B
bx G
bx _
bx i
bx ;
bx e
bx 9"
bx 3"
b1110 G"
b1101 F"
0{
1z
bx 1
bx 0"
bx |
bx ^
bx1111111111111 I
bx L
b0 $"
b0 x
bx h
b1111111111111 &
b1111111111111 5
b1111111111111 D
b1111111111111 ~
b1111111111111 ,
b1111111111111 A"
b11111 ?"
b10 #
b10 0
b10 /"
b10 /
b10 <"
b10 $
b10 3
b10 -"
b10 .
b10 ="
b111 '
b111 8
b111 *
b111 B"
b10010111111 +
b10010111111 9
b10010111111 f
b10010111111 #"
b10010111111 ;"
b10010111111 E"
1!
#140000
0!
#145000
b1111 G"
b1110 F"
b0 `
b0 b
b0 a
b0 c
b0 K
b0 H
b1111111111111111 G
0'"
b0 B
b10 I
b10 L
b1111111111111110 ^
b0 _
b10 h
b0 i
b0 ;
b0 e
b0 9"
0>
b1100 $"
b1100 x
b10 @"
b0 ?"
b10 &
b10 5
b10 D
b10 ~
b10 ,
b10 A"
b0 #
b0 0
b0 /"
b0 /
b0 <"
b0 $
b0 3
b0 -"
b0 .
b0 ="
b1001 '
b1001 8
b1001 *
b1001 B"
b1100110100000010 +
b1100110100000010 9
b1100110100000010 f
b1100110100000010 #"
b1100110100000010 ;"
b1100110100000010 E"
1!
#150000
0!
#155000
b10000 G"
b1111 F"
b0 ^
b0 I
b0 L
bx $"
bx x
b0 @"
b0 h
b0 &
b0 5
b0 D
b0 ~
b0 ,
b0 A"
b0 '
b0 8
b0 *
b0 B"
bx +
bx 9
bx f
bx #"
bx ;"
bx E"
1!
#160000
0!
#165000
b10001 G"
b10000 F"
1!
#170000
0!
#175000
b10010 G"
b10001 F"
1!
#180000
0!
#185000
b10011 G"
b10010 F"
1!
#190000
0!
#195000
b10100 G"
b10011 F"
1!
#200000
0!
#205000
b10101 G"
b10100 F"
1!
#210000
0!
#215000
b10110 G"
b10101 F"
1!
#220000
0!
#225000
b10111 G"
b10110 F"
1!
#230000
0!
#235000
b11000 G"
b10111 F"
1!
#240000
0!
#245000
b11001 G"
b11000 F"
1!
#250000
0!
#255000
b11010 G"
b11001 F"
1!
#260000
0!
#265000
b11011 G"
b11010 F"
1!
#270000
0!
#275000
b11100 G"
b11011 F"
1!
#280000
0!
#285000
b11101 G"
b11100 F"
1!
#290000
0!
#295000
b11110 G"
b11101 F"
1!
#300000
0!
#305000
b11111 G"
b11110 F"
1!
#310000
0!
#315000
b100000 G"
b11111 F"
1!
#320000
0!
#325000
b100001 G"
b100000 F"
1!
#330000
0!
#335000
b100010 G"
b100001 F"
1!
#340000
0!
#345000
b100011 G"
b100010 F"
1!
#350000
0!
#355000
b100100 G"
b100011 F"
1!
#360000
0!
#365000
b100101 G"
b100100 F"
1!
#370000
0!
#375000
b100110 G"
b100101 F"
1!
#380000
0!
#385000
b100111 G"
b100110 F"
1!
#390000
0!
#395000
b101000 G"
b100111 F"
1!
#400000
0!
#405000
b101001 G"
b101000 F"
1!
#410000
0!
#415000
b101010 G"
b101001 F"
1!
#420000
0!
#425000
b101011 G"
b101010 F"
1!
#430000
0!
#435000
b101100 G"
b101011 F"
1!
#440000
0!
#445000
b101101 G"
b101100 F"
1!
#450000
0!
#455000
b101110 G"
b101101 F"
1!
#460000
0!
#465000
b101111 G"
b101110 F"
1!
#470000
0!
#475000
b110000 G"
b101111 F"
1!
#480000
0!
#485000
b110001 G"
b110000 F"
1!
#490000
0!
#495000
b110010 G"
b110001 F"
1!
#500000
0!
#505000
b110011 G"
b110010 F"
1!
#510000
0!
#515000
b110100 G"
b110011 F"
1!
#520000
0!
#525000
b110101 G"
b110100 F"
1!
#530000
0!
#535000
b110110 G"
b110101 F"
1!
#540000
0!
#545000
b110111 G"
b110110 F"
1!
#550000
0!
#555000
b111000 G"
b110111 F"
1!
#560000
0!
#565000
b111001 G"
b111000 F"
1!
#570000
0!
#575000
b111010 G"
b111001 F"
1!
#580000
0!
#585000
b111011 G"
b111010 F"
1!
#590000
0!
#595000
b111100 G"
b111011 F"
1!
#600000
0!
#605000
b111101 G"
b111100 F"
1!
#610000
0!
#615000
b111110 G"
b111101 F"
1!
#620000
0!
#625000
b111111 G"
b111110 F"
1!
#630000
0!
#635000
b1000000 G"
b111111 F"
1!
#640000
0!
#645000
b1000001 G"
b1000000 F"
1!
#650000
0!
#655000
b1000010 G"
b1000001 F"
1!
#660000
0!
#665000
b1000011 G"
b1000010 F"
1!
#670000
0!
#675000
b1000100 G"
b1000011 F"
1!
#680000
0!
#685000
b1000101 G"
b1000100 F"
1!
#690000
0!
#695000
b1000110 G"
b1000101 F"
1!
#700000
0!
#705000
b1000111 G"
b1000110 F"
1!
#710000
0!
#715000
b1001000 G"
b1000111 F"
1!
#720000
0!
#725000
b1001001 G"
b1001000 F"
1!
#730000
0!
#735000
b1001010 G"
b1001001 F"
1!
#740000
0!
#745000
b1001011 G"
b1001010 F"
1!
#750000
0!
#755000
b1001100 G"
b1001011 F"
1!
#760000
0!
#765000
b1001101 G"
b1001100 F"
1!
#770000
0!
#775000
b1001110 G"
b1001101 F"
1!
#780000
0!
#785000
b1001111 G"
b1001110 F"
1!
#790000
0!
#795000
b1010000 G"
b1001111 F"
1!
#800000
0!
#805000
b1010001 G"
b1010000 F"
1!
#810000
0!
#815000
b1010010 G"
b1010001 F"
1!
#820000
0!
#825000
b1010011 G"
b1010010 F"
1!
#830000
0!
#835000
b1010100 G"
b1010011 F"
1!
#840000
0!
#845000
b1010101 G"
b1010100 F"
1!
#850000
0!
#855000
b1010110 G"
b1010101 F"
1!
#860000
0!
#865000
b1010111 G"
b1010110 F"
1!
#870000
0!
#875000
b1011000 G"
b1010111 F"
1!
#880000
0!
#885000
b1011001 G"
b1011000 F"
1!
#890000
0!
#895000
b1011010 G"
b1011001 F"
1!
#900000
0!
#905000
b1011011 G"
b1011010 F"
1!
#910000
0!
#915000
b1011100 G"
b1011011 F"
1!
#920000
0!
#925000
b1011101 G"
b1011100 F"
1!
#930000
0!
#935000
b1011110 G"
b1011101 F"
1!
#940000
0!
#945000
b1011111 G"
b1011110 F"
1!
#950000
0!
#955000
b1100000 G"
b1011111 F"
1!
#960000
0!
#965000
b1100001 G"
b1100000 F"
1!
#970000
0!
#975000
b1100010 G"
b1100001 F"
1!
#980000
0!
#985000
b1100011 G"
b1100010 F"
1!
#990000
0!
#995000
b1100100 G"
b1100011 F"
1!
#1000000
0!
#1005000
b1100101 G"
b1100100 F"
1!
#1010000
0!
#1015000
b1100110 G"
b1100101 F"
1!
#1020000
0!
#1025000
b1100111 G"
b1100110 F"
1!
#1030000
0!
#1035000
b1101000 G"
b1100111 F"
1!
#1040000
0!
#1045000
b1101001 G"
b1101000 F"
1!
#1050000
0!
#1055000
b1101010 G"
b1101001 F"
1!
#1060000
0!
#1065000
b1101011 G"
b1101010 F"
1!
#1070000
0!
#1075000
b1101100 G"
b1101011 F"
1!
#1080000
0!
#1085000
b1101101 G"
b1101100 F"
1!
#1090000
0!
#1095000
b1101110 G"
b1101101 F"
1!
#1100000
0!
#1105000
b1101111 G"
b1101110 F"
1!
#1110000
0!
#1115000
b1110000 G"
b1101111 F"
1!
#1120000
0!
#1125000
b1110001 G"
b1110000 F"
1!
#1130000
0!
#1135000
b1110010 G"
b1110001 F"
1!
#1140000
0!
#1145000
b1110011 G"
b1110010 F"
1!
#1150000
0!
#1155000
b1110100 G"
b1110011 F"
1!
#1160000
0!
#1165000
b1110101 G"
b1110100 F"
1!
#1170000
0!
#1175000
b1110110 G"
b1110101 F"
1!
#1180000
0!
#1185000
b1110111 G"
b1110110 F"
1!
#1190000
0!
#1195000
b1111000 G"
b1110111 F"
1!
#1200000
0!
#1205000
b1111001 G"
b1111000 F"
1!
#1210000
0!
#1215000
b1111010 G"
b1111001 F"
1!
#1220000
0!
#1225000
b1111011 G"
b1111010 F"
1!
#1230000
0!
#1235000
b1111100 G"
b1111011 F"
1!
#1240000
0!
#1245000
b1111101 G"
b1111100 F"
1!
#1250000
0!
#1255000
b1111110 G"
b1111101 F"
1!
#1260000
0!
#1265000
b1111111 G"
b1111110 F"
1!
#1270000
0!
#1275000
b10000000 G"
b1111111 F"
1!
#1280000
0!
#1285000
b10000001 G"
b10000000 F"
1!
#1290000
0!
#1295000
b10000010 G"
b10000001 F"
1!
#1300000
0!
#1305000
b10000011 G"
b10000010 F"
1!
#1310000
0!
#1315000
b10000100 G"
b10000011 F"
1!
#1320000
0!
#1325000
b10000101 G"
b10000100 F"
1!
#1330000
0!
#1335000
b10000110 G"
b10000101 F"
1!
#1340000
0!
#1345000
b10000111 G"
b10000110 F"
1!
#1350000
0!
#1355000
b10001000 G"
b10000111 F"
1!
#1360000
0!
#1365000
b10001001 G"
b10001000 F"
1!
#1370000
0!
#1375000
b10001010 G"
b10001001 F"
1!
#1380000
0!
#1385000
b10001011 G"
b10001010 F"
1!
#1390000
0!
#1395000
b10001100 G"
b10001011 F"
1!
#1400000
0!
#1405000
b10001101 G"
b10001100 F"
1!
#1410000
0!
#1415000
b10001110 G"
b10001101 F"
1!
#1420000
0!
#1425000
b10001111 G"
b10001110 F"
1!
#1430000
0!
#1435000
b10010000 G"
b10001111 F"
1!
#1440000
0!
#1445000
b10010001 G"
b10010000 F"
1!
#1450000
0!
#1455000
b10010010 G"
b10010001 F"
1!
#1460000
0!
#1465000
b10010011 G"
b10010010 F"
1!
#1470000
0!
#1475000
b10010100 G"
b10010011 F"
1!
#1480000
0!
#1485000
b10010101 G"
b10010100 F"
1!
#1490000
0!
#1495000
b10010110 G"
b10010101 F"
1!
#1500000
0!
#1505000
b10010111 G"
b10010110 F"
1!
#1510000
0!
#1515000
b10011000 G"
b10010111 F"
1!
#1520000
0!
#1525000
b10011001 G"
b10011000 F"
1!
#1530000
0!
#1535000
b10011010 G"
b10011001 F"
1!
#1540000
0!
#1545000
b10011011 G"
b10011010 F"
1!
#1550000
0!
#1555000
b10011100 G"
b10011011 F"
1!
#1560000
0!
#1565000
b10011101 G"
b10011100 F"
1!
#1570000
0!
#1575000
b10011110 G"
b10011101 F"
1!
#1580000
0!
#1585000
b10011111 G"
b10011110 F"
1!
#1590000
0!
#1595000
b10100000 G"
b10011111 F"
1!
#1600000
0!
#1605000
b10100001 G"
b10100000 F"
1!
#1610000
0!
#1615000
b10100010 G"
b10100001 F"
1!
#1620000
0!
#1625000
b10100011 G"
b10100010 F"
1!
#1630000
0!
#1635000
b10100100 G"
b10100011 F"
1!
#1640000
0!
#1645000
b10100101 G"
b10100100 F"
1!
#1650000
0!
#1655000
b10100110 G"
b10100101 F"
1!
#1660000
0!
#1665000
b10100111 G"
b10100110 F"
1!
#1670000
0!
#1675000
b10101000 G"
b10100111 F"
1!
#1680000
0!
#1685000
b10101001 G"
b10101000 F"
1!
#1690000
0!
#1695000
b10101010 G"
b10101001 F"
1!
#1700000
0!
#1705000
b10101011 G"
b10101010 F"
1!
#1710000
0!
#1715000
b10101100 G"
b10101011 F"
1!
#1720000
0!
#1725000
b10101101 G"
b10101100 F"
1!
#1730000
0!
#1735000
b10101110 G"
b10101101 F"
1!
#1740000
0!
#1745000
b10101111 G"
b10101110 F"
1!
#1750000
0!
#1755000
b10110000 G"
b10101111 F"
1!
#1760000
0!
#1765000
b10110001 G"
b10110000 F"
1!
#1770000
0!
#1775000
b10110010 G"
b10110001 F"
1!
#1780000
0!
#1785000
b10110011 G"
b10110010 F"
1!
#1790000
0!
#1795000
b10110100 G"
b10110011 F"
1!
#1800000
0!
#1805000
b10110101 G"
b10110100 F"
1!
#1810000
0!
#1815000
b10110110 G"
b10110101 F"
1!
#1820000
0!
#1825000
b10110111 G"
b10110110 F"
1!
#1830000
0!
#1835000
b10111000 G"
b10110111 F"
1!
#1840000
0!
#1845000
b10111001 G"
b10111000 F"
1!
#1850000
0!
#1855000
b10111010 G"
b10111001 F"
1!
#1860000
0!
#1865000
b10111011 G"
b10111010 F"
1!
#1870000
0!
#1875000
b10111100 G"
b10111011 F"
1!
#1880000
0!
#1885000
b10111101 G"
b10111100 F"
1!
#1890000
0!
#1895000
b10111110 G"
b10111101 F"
1!
#1900000
0!
#1905000
b10111111 G"
b10111110 F"
1!
#1910000
0!
#1915000
b11000000 G"
b10111111 F"
1!
#1920000
0!
#1925000
b11000001 G"
b11000000 F"
1!
#1930000
0!
#1935000
b11000010 G"
b11000001 F"
1!
#1940000
0!
#1945000
b11000011 G"
b11000010 F"
1!
#1950000
0!
#1955000
b11000100 G"
b11000011 F"
1!
#1960000
0!
#1965000
b11000101 G"
b11000100 F"
1!
#1970000
0!
#1975000
b11000110 G"
b11000101 F"
1!
#1980000
0!
#1985000
b11000111 G"
b11000110 F"
1!
#1990000
0!
#1995000
b11001000 G"
b11000111 F"
1!
#2000000
0!
#2005000
b11001001 G"
b11001000 F"
1!
#2010000
0!
#2015000
b11001010 G"
b11001001 F"
1!
#2020000
0!
#2025000
b11001011 G"
b11001010 F"
1!
#2030000
0!
#2035000
b11001100 G"
b11001011 F"
1!
#2040000
0!
#2045000
b11001101 G"
b11001100 F"
1!
#2050000
0!
#2055000
b11001110 G"
b11001101 F"
1!
#2060000
0!
#2065000
b11001111 G"
b11001110 F"
1!
#2070000
0!
#2075000
b11010000 G"
b11001111 F"
1!
#2080000
0!
#2085000
b11010001 G"
b11010000 F"
1!
#2090000
0!
#2095000
b11010010 G"
b11010001 F"
1!
#2100000
0!
#2105000
b11010011 G"
b11010010 F"
1!
#2110000
0!
#2115000
b11010100 G"
b11010011 F"
1!
#2120000
0!
#2125000
b11010101 G"
b11010100 F"
1!
#2130000
0!
#2135000
b11010110 G"
b11010101 F"
1!
#2140000
0!
#2145000
b11010111 G"
b11010110 F"
1!
#2150000
0!
#2155000
b11011000 G"
b11010111 F"
1!
#2160000
0!
#2165000
b11011001 G"
b11011000 F"
1!
#2170000
0!
#2175000
b11011010 G"
b11011001 F"
1!
#2180000
0!
#2185000
b11011011 G"
b11011010 F"
1!
#2190000
0!
#2195000
b11011100 G"
b11011011 F"
1!
#2200000
0!
#2205000
b11011101 G"
b11011100 F"
1!
#2210000
0!
#2215000
b11011110 G"
b11011101 F"
1!
#2220000
0!
#2225000
b11011111 G"
b11011110 F"
1!
#2230000
0!
#2235000
b11100000 G"
b11011111 F"
1!
#2240000
0!
#2245000
b11100001 G"
b11100000 F"
1!
#2250000
0!
#2255000
b11100010 G"
b11100001 F"
1!
#2260000
0!
