Project_Code/top_tb.vcd
$date
	Wed Dec 28 14:45:51 2022
$end
$version
	Icarus Verilog
$end
$timescale
	1ps
$end
$scope module top_tb $end
$var wire 16 ! res [15:0] $end
$var wire 4 " opcode [3:0] $end
$var wire 16 # inst [15:0] $end
$var wire 5 $ imm5 [4:0] $end
$var wire 16 % currentPC [15:0] $end
$var wire 16 & SR2_value [15:0] $end
$var wire 3 ' SR2 [2:0] $end
$var wire 16 ( SR1_value [15:0] $end
$var wire 3 ) SR1 [2:0] $end
$var wire 16 * DataOut [15:0] $end
$var wire 16 + DR_value [15:0] $end
$var wire 3 , DR [2:0] $end
$var reg 1 - clk $end
$var reg 1 . reset $end
$scope module uut $end
$var wire 1 - clk $end
$var wire 1 . reset $end
$var wire 1 / z $end
$var wire 16 0 write_value [15:0] $end
$var wire 16 1 res [15:0] $end
$var wire 16 2 push_sp [15:0] $end
$var wire 16 3 pop_sp [15:0] $end
$var wire 1 4 p $end
$var wire 4 5 opcode [3:0] $end
$var wire 16 6 nextSP [15:0] $end
$var wire 16 7 nextPC [15:0] $end
$var wire 1 8 n $end
$var wire 16 9 inst [15:0] $end
$var wire 5 : imm5 [4:0] $end
$var wire 16 ; imm16 [15:0] $end
$var wire 16 < currentSP [15:0] $end
$var wire 16 = currentPC_imm [15:0] $end
$var wire 16 > currentPC_2 [15:0] $end
$var wire 16 ? currentPC [15:0] $end
$var wire 1 @ changeSP $end
$var wire 1 A change $end
$var wire 1 B WriteDateSel $end
$var wire 16 C SR2_value [15:0] $end
$var wire 3 D SR2 [2:0] $end
$var wire 16 E SR1_value [15:0] $end
$var wire 3 F SR1 [2:0] $end
$var wire 1 G RegWE $end
$var wire 1 H PushControl $end
$var wire 1 I PopControl $end
$var wire 1 J PCSel $end
$var wire 1 K MemRW $end
$var wire 1 L InstMemRW $end
$var wire 1 M ExtSel $end
$var wire 16 N DataOut [15:0] $end
$var wire 16 O DR_value [15:0] $end
$var wire 3 P DR [2:0] $end
$var wire 16 Q B [15:0] $end
$var wire 1 R ALUSrc2Sel $end
$var wire 4 S ALUOp [3:0] $end
$scope module alu $end
$var wire 32 T temp9 [31:0] $end
$var wire 32 U temp8 [31:0] $end
$var wire 32 V temp7 [31:0] $end
$var wire 32 W temp6 [31:0] $end
$var wire 32 X temp5 [31:0] $end
$var wire 32 Y temp4 [31:0] $end
$var wire 32 Z temp3 [31:0] $end
$var wire 32 [ temp2 [31:0] $end
$var wire 32 \ temp15 [31:0] $end
$var wire 32 ] temp14 [31:0] $end
$var wire 32 ^ temp13 [31:0] $end
$var wire 32 _ temp12 [31:0] $end
$var wire 32 ` temp11 [31:0] $end
$var wire 32 a temp10 [31:0] $end
$var wire 32 b temp1 [31:0] $end
$var wire 32 c temp0 [31:0] $end
$var wire 32 d mul_res [31:0] $end
$var wire 32 e add9 [31:0] $end
$var wire 32 f add8 [31:0] $end
$var wire 32 g add7 [31:0] $end
$var wire 32 h add6 [31:0] $end
$var wire 32 i add5 [31:0] $end
$var wire 32 j add4 [31:0] $end
$var wire 32 k add3 [31:0] $end
$var wire 32 l add2 [31:0] $end
$var wire 32 m add13 [31:0] $end
$var wire 32 n add12 [31:0] $end
$var wire 32 o add11 [31:0] $end
$var wire 32 p add10 [31:0] $end
$var wire 32 q add1 [31:0] $end
$var wire 32 r add0 [31:0] $end
$var wire 16 s B [15:0] $end
$var wire 4 t ALUOp [3:0] $end
$var wire 16 u A [15:0] $end
$var reg 1 8 n $end
$var reg 1 4 p $end
$var reg 16 v res [15:0] $end
$var reg 1 / z $end
$upscope $end
$scope module cu $end
$var wire 1 8 n $end
$var wire 1 4 p $end
$var wire 1 / z $end
$var wire 16 w inst [15:0] $end
$var reg 4 x ALUOp [3:0] $end
$var reg 1 R ALUSrc2Sel $end
$var reg 1 M ExtSel $end
$var reg 1 L InstMemRW $end
$var reg 1 K MemRW $end
$var reg 1 J PCSel $end
$var reg 1 I PopControl $end
$var reg 1 H PushControl $end
$var reg 1 G RegWE $end
$var reg 1 B WriteDateSel $end
$var reg 1 A change $end
$var reg 1 @ changeSP $end
$upscope $end
$scope module ext $end
$var wire 1 M ExtSel $end
$var wire 5 y imm5 [4:0] $end
$var wire 16 z imm16 [15:0] $end
$upscope $end
$scope module im $end
$var wire 1 L InstMemRW $end
$var wire 4 { opcode [3:0] $end
$var wire 16 | inst [15:0] $end
$var wire 5 } imm5 [4:0] $end
$var wire 16 ~ addr [15:0] $end
$var wire 3 !" SR2 [2:0] $end
$var wire 3 "" SR1 [2:0] $end
$var wire 3 #" DR [2:0] $end
$upscope $end
$scope module m1 $end
$var wire 1 R control $end
$var wire 16 $" in1 [15:0] $end
$var wire 16 %" out [15:0] $end
$var wire 16 &" in0 [15:0] $end
$upscope $end
$scope module m2 $end
$var wire 1 B control $end
$var wire 16 '" in0 [15:0] $end
$var wire 16 (" out [15:0] $end
$var wire 16 )" in1 [15:0] $end
$upscope $end
$scope module m3 $end
$var wire 1 J control $end
$var wire 16 *" in0 [15:0] $end
$var wire 16 +" in1 [15:0] $end
$var wire 16 ," out [15:0] $end
$upscope $end
$scope module m4 $end
$var wire 1 I PopControl $end
$var wire 1 H PushControl $end
$var wire 16 -" pop_sp [15:0] $end
$var wire 16 ." push_sp [15:0] $end
$var wire 16 /" out [15:0] $end
$var wire 16 0" current_sp [15:0] $end
$upscope $end
$scope module memory $end
$var wire 16 1" Addr [15:0] $end
$var wire 1 K MemRW $end
$var wire 1 I PopControl $end
$var wire 1 H PushControl $end
$var wire 8 2" s1 [7:0] $end
$var wire 8 3" s10 [7:0] $end
$var wire 8 4" s11 [7:0] $end
$var wire 8 5" s2 [7:0] $end
$var wire 8 6" s3 [7:0] $end
$var wire 8 7" s4 [7:0] $end
$var wire 8 8" s5 [7:0] $end
$var wire 8 9" s6 [7:0] $end
$var wire 8 :" s7 [7:0] $end
$var wire 8 ;" s8 [7:0] $end
$var wire 8 <" s9 [7:0] $end
$var wire 16 =" DataIn [15:0] $end
$var wire 16 >" CurrentSP [15:0] $end
$var reg 16 ?" DataOut [15:0] $end
$upscope $end
$scope module pc $end
$var wire 1 A change $end
$var wire 1 - clk $end
$var wire 16 @" nextPC [15:0] $end
$var wire 1 . reset $end
$var reg 16 A" currentPC [15:0] $end
$upscope $end
$scope module rf $end
$var wire 3 B" DR [2:0] $end
$var wire 16 C" DR_value [15:0] $end
$var wire 16 D" R0 [15:0] $end
$var wire 16 E" R1 [15:0] $end
$var wire 16 F" R2 [15:0] $end
$var wire 16 G" R3 [15:0] $end
$var wire 16 H" R4 [15:0] $end
$var wire 16 I" R5 [15:0] $end
$var wire 16 J" R6 [15:0] $end
$var wire 16 K" R7 [15:0] $end
$var wire 1 G RegWE $end
$var wire 3 L" SR1 [2:0] $end
$var wire 16 M" SR1_value [15:0] $end
$var wire 3 N" SR2 [2:0] $end
$var wire 16 O" SR2_value [15:0] $end
$var wire 1 - clk $end
$var wire 16 P" write_value [15:0] $end
$var integer 32 Q" i [31:0] $end
$upscope $end
$scope module sp $end
$var wire 1 @ changeSP $end
$var wire 1 - clk $end
$var wire 16 R" nextSP [15:0] $end
$var wire 1 . reset $end
$var reg 16 S" currentSP [15:0] $end
$upscope $end
$upscope $end
$upscope $end
$enddefinitions $end
#0
$dumpvars
b111110 S"
b111110 R"
b10000 Q"
b0 P"
b0 O"
b0 N"
b0 M"
b0 L"
b0 K"
b0 J"
b0 I"
b0 H"
b0 G"
b0 F"
b0 E"
b0 D"
b0 C"
b0 B"
b0 A"
b10 @"
b111111 ?"
b111110 >"
b0 ="
b0 <"
b0 ;"
b0 :"
b0 9"
b0 8"
b0 7"
b0 6"
b0 5"
b0 4"
b0 3"
b0 2"
b0 1"
b111110 0"
b111110 /"
b111100 ."
b1000000 -"
b10 ,"
b10 +"
b10 *"
b111111 )"
b0 ("
b0 '"
b0 &"
b0 %"
b0 $"
b0 #"
b0 ""
b0 !"
b0 ~
b0 }
b0 |
b0 {
b0 z
b0 y
b0 x
b0 w
b0 v
b0 u
b0 t
b0 s
b0 r
b0 q
b0 p
b0 o
b0 n
b0 m
b0 l
b0 k
b0 j
b0 i
b0 h
b0 g
b0 f
b0 e
b0 d
b0 c
b0 b
b0 a
b0 `
b0 _
b0 ^
b0 ]
b0 \
b0 [
b0 Z
b0 Y
b0 X
b0 W
b0 V
b0 U
b0 T
b0 S
0R
b0 Q
b0 P
b0 O
b111111 N
0M
1L
0K
0J
0I
0H
1G
b0 F
b0 E
b0 D
b0 C
0B
1A
0@
b0 ?
b10 >
b10 =
b111110 <
b0 ;
b0 :
b0 9
08
b10 7
b111110 6
b0 5
04
b1000000 3
b111100 2
b0 1
b0 0
1/
1.
1-
b0 ,
b0 +
b111111 *
b0 )
b0 (
b0 '
b0 &
b0 %
b0 $
b0 #
b0 "
b0 !
$end
#5000
0-
#10000
b1 )
b1 F
b1 ""
b1 L"
b1 ,
b1 P
b1 #"
b1 B"
b11 "
b11 5
b11 {
b11 S
b11 t
b11 x
1M
1R
b100 7
b100 ,"
b100 @"
b11001001100000 #
b11001001100000 9
b11001001100000 w
b11001001100000 |
b100 =
b100 +"
b100 >
b100 *"
b10 %
b10 ?
b10 ~
b10 A"
1-
0.
#15000
0-
#20000
b1010100000000 *
b1010100000000 N
b1010100000000 )"
b1010100000000 ?"
b11 0
b11 ("
b11 P"
0/
14
b11 !
b11 1
b11 v
b11 '"
b11 1"
b11 Q
b11 s
b11 %"
b11 ;
b11 z
b11 $"
b11 $
b11 :
b11 y
b11 }
b11 '
b11 D
b11 !"
b11 N"
b0 "
b0 5
b0 {
b0 S
b0 t
b0 x
b110 7
b110 ,"
b110 @"
b1001100011 #
b1001100011 9
b1001100011 w
b1001100011 |
b1100 =
b1100 +"
b110 >
b110 *"
b100 %
b100 ?
b100 ~
b100 A"
1-
#25000
0-
#30000
b1 Q
b1 s
b1 %"
14
0/
b1 ;
b1 z
b1 $"
b1 $
b1 :
b1 y
b1 }
b11 &
b11 C
b11 &"
b11 O"
b1 '
b1 D
b1 !"
b1 N"
b10 "
b10 5
b10 {
b10 S
b10 t
b10 x
b1000 7
b1000 ,"
b1000 @"
b10101 *
b10101 N
b10101 )"
b10101 ?"
b10001001100001 #
b10001001100001 9
b10001001100001 w
b10001001100001 |
b1010 =
b1010 +"
b1000 >
b1000 *"
b110 %
b110 ?
b110 ~
b110 A"
b10 0
b10 ("
b10 P"
b0 b
b11 d
b11 n
b11 f
b11 r
b11 c
b10 !
b10 1
b10 v
b10 '"
b10 1"
b11 (
b11 E
b11 u
b11 M"
b11 +
b11 O
b11 ="
b11 C"
b11 E"
1-
#35000
0-
#40000
b0 Q
b0 s
b0 %"
b1111111111111110 ;
b1111111111111110 z
b1111111111111110 $"
b11110 $
b11110 :
b11110 y
b11110 }
b110 '
b110 D
b110 !"
b110 N"
b0 )
b0 F
b0 ""
b0 L"
b11 ,
b11 P
b11 #"
b11 B"
b1101 "
b1101 5
b1101 {
b1111 S
b1111 t
b1111 x
0G
0R
1J
b110 7
b110 ,"
b110 @"
b11111100000000 *
b11111100000000 N
b11111100000000 )"
b11111100000000 ?"
b1101011000011110 #
b1101011000011110 9
b1101011000011110 w
b1101011000011110 |
b110 =
b110 +"
b1010 >
b1010 *"
b1000 %
b1000 ?
b1000 ~
b1000 A"
b1 0
b1 ("
b1 P"
b0 d
b0 n
b0 f
b0 r
b0 c
b1 !
b1 1
b1 v
b1 '"
b1 1"
b0 (
b0 E
b0 u
b0 M"
b0 &
b0 C
b0 &"
b0 O"
b0 +
b0 O
b0 ="
b0 C"
b10 E"
1-
#45000
0-
#50000
b11111100000000 *
b11111100000000 N
b11111100000000 )"
b11111100000000 ?"
b0 \
b0 g
b0 ]
b0 ^
b0 o
b0 h
b0 _
b0 `
b0 i
b0 a
b0 T
b0 m
b0 p
b0 j
b0 U
b0 V
b0 k
b0 W
b0 e
b0 l
b0 X
b10 d
b10 n
b10 f
b10 r
b10 c
b1 0
b1 ("
b1 P"
b1 !
b1 1
b1 v
b1 '"
b1 1"
b1 Q
b1 s
b1 %"
b1 ;
b1 z
b1 $"
b1 $
b1 :
b1 y
b1 }
b10 &
b10 C
b10 &"
b10 O"
b1 '
b1 D
b1 !"
b1 N"
b10 (
b10 E
b10 u
b10 M"
b1 )
b1 F
b1 ""
b1 L"
b10 +
b10 O
b10 ="
b10 C"
b1 ,
b1 P
b1 #"
b1 B"
b10 "
b10 5
b10 {
b10 S
b10 t
b10 x
0J
1G
1R
b1000 7
b1000 ,"
b1000 @"
b10001001100001 #
b10001001100001 9
b10001001100001 w
b10001001100001 |
b1010 =
b1010 +"
b1000 >
b1000 *"
b110 %
b110 ?
b110 ~
b110 A"
1-
#55000
0-
#60000
b0 Q
b0 s
b0 %"
b1111111111111110 ;
b1111111111111110 z
b1111111111111110 $"
b11110 $
b11110 :
b11110 y
b11110 }
b110 '
b110 D
b110 !"
b110 N"
b0 )
b0 F
b0 ""
b0 L"
b11 ,
b11 P
b11 #"
b11 B"
b1101 "
b1101 5
b1101 {
b1111 S
b1111 t
b1111 x
0G
0R
1J
b110 7
b110 ,"
b110 @"
b111111 *
b111111 N
b111111 )"
b111111 ?"
b1101011000011110 #
b1101011000011110 9
b1101011000011110 w
b1101011000011110 |
b110 =
b110 +"
b1010 >
b1010 *"
b1000 %
b1000 ?
b1000 ~
b1000 A"
b0 0
b0 ("
b0 P"
b0 d
b0 n
b0 f
b0 r
b0 c
04
1/
b0 !
b0 1
b0 v
b0 '"
b0 1"
b0 (
b0 E
b0 u
b0 M"
b0 &
b0 C
b0 &"
b0 O"
b0 +
b0 O
b0 ="
b0 C"
b1 E"
1-
#65000
0-
#70000
b111111 *
b111111 N
b111111 )"
b111111 ?"
b0 \
b0 g
b0 ]
b0 ^
b0 o
b0 h
b0 _
b0 `
b0 i
b0 a
b0 T
b0 m
b0 p
b0 j
b0 U
b0 V
b0 k
b0 W
b0 e
b0 l
b0 X
b1 d
b1 n
b1 f
b1 r
b1 c
b0 0
b0 ("
b0 P"
1/
04
b0 !
b0 1
b0 v
b0 '"
b0 1"
b1 Q
b1 s
b1 %"
b1 ;
b1 z
b1 $"
b1 $
b1 :
b1 y
b1 }
b1 &
b1 C
b1 &"
b1 O"
b1 '
b1 D
b1 !"
b1 N"
b1 (
b1 E
b1 u
b1 M"
b1 )
b1 F
b1 ""
b1 L"
b1 +
b1 O
b1 ="
b1 C"
b1 ,
b1 P
b1 #"
b1 B"
b10 "
b10 5
b10 {
b10 S
b10 t
b10 x
0J
1G
1R
b1000 7
b1000 ,"
b1000 @"
b10001001100001 #
b10001001100001 9
b10001001100001 w
b10001001100001 |
b1010 =
b1010 +"
b1000 >
b1000 *"
b110 %
b110 ?
b110 ~
b110 A"
1-
#75000
0-
#80000
b0 Q
b0 s
b0 %"
b1111111111111110 ;
b1111111111111110 z
b1111111111111110 $"
b11110 $
b11110 :
b11110 y
b11110 }
b110 '
b110 D
b110 !"
b110 N"
b0 )
b0 F
b0 ""
b0 L"
b11 ,
b11 P
b11 #"
b11 B"
b1101 "
b1101 5
b1101 {
b1111 S
b1111 t
b1111 x
0G
0R
b1010 7
b1010 ,"
b1010 @"
bx *
bx N
bx )"
bx ?"
b1101011000011110 #
b1101011000011110 9
b1101011000011110 w
b1101011000011110 |
b110 =
b110 +"
b1010 >
b1010 *"
b1000 %
b1000 ?
b1000 ~
b1000 A"
b1111111111111111 0
b1111111111111111 ("
b1111111111111111 P"
b0 d
b0 n
b0 f
b0 r
b0 c
0/
18
b1111111111111111 !
b1111111111111111 1
b1111111111111111 v
b1111111111111111 '"
b1111111111111111 1"
b0 (
b0 E
b0 u
b0 M"
b0 &
b0 C
b0 &"
b0 O"
b0 +
b0 O
b0 ="
b0 C"
b0 E"
1-
#85000
0-
#90000
bx *
bx N
bx )"
bx ?"
b1111111111111101 0
b1111111111111101 ("
b1111111111111101 P"
18
04
b1111111111111101 !
b1111111111111101 1
b1111111111111101 v
b1111111111111101 '"
b1111111111111101 1"
b11 Q
b11 s
b11 %"
b11 ;
b11 z
b11 $"
b11 $
b11 :
b11 y
b11 }
b11 '
b11 D
b11 !"
b11 N"
b1 )
b1 F
b1 ""
b1 L"
b1 ,
b1 P
b1 #"
b1 B"
b10 "
b10 5
b10 {
b10 S
b10 t
b10 x
1G
1R
b1100 7
b1100 ,"
b1100 @"
b10001001100011 #
b10001001100011 9
b10001001100011 w
b10001001100011 |
b10010 =
b10010 +"
b1100 >
b1100 *"
b1010 %
b1010 ?
b1010 ~
b1010 A"
1-
#95000
0-
#100000
bx *
bx N
bx )"
bx ?"
b1 Q
b1 s
b1 %"
18
0/
b1 ;
b1 z
b1 $"
b1 $
b1 :
b1 y
b1 }
b1111111111111101 &
b1111111111111101 C
b1111111111111101 &"
b1111111111111101 O"
b1 '
b1 D
b1 !"
b1 N"
b0 "
b0 5
b0 {
b0 S
b0 t
b0 x
b1110 7
b1110 ,"
b1110 @"
b1001100001 #
b1001100001 9
b1001100001 w
b1001100001 |
b10000 =
b10000 +"
b1110 >
b1110 *"
b1100 %
b1100 ?
b1100 ~
b1100 A"
b1111111111111110 0
b1111111111111110 ("
b1111111111111110 P"
b0 b
b1111111111111101 d
b1111111111111101 n
b1111111111111101 f
b1111111111111101 r
b1111111111111101 c
b1111111111111110 !
b1111111111111110 1
b1111111111111110 v
b1111111111111110 '"
b1111111111111110 1"
b1111111111111101 (
b1111111111111101 E
b1111111111111101 u
b1111111111111101 M"
b1111111111111101 +
b1111111111111101 O
b1111111111111101 ="
b1111111111111101 C"
b1111111111111101 E"
1-
#105000
0-
#110000
b0 Q
b0 s
b0 %"
b1111111111111110 ;
b1111111111111110 z
b1111111111111110 $"
b11110 $
b11110 :
b11110 y
b11110 }
b110 '
b110 D
b110 !"
b110 N"
b0 )
b0 F
b0 ""
b0 L"
b110 ,
b110 P
b110 #"
b110 B"
b1101 "
b1101 5
b1101 {
b1111 S
b1111 t
b1111 x
0G
0R
1J
b1100 7
b1100 ,"
b1100 @"
b1101110000011110 #
b1101110000011110 9
b1101110000011110 w
b1101110000011110 |
b1100 =
b1100 +"
b10000 >
b10000 *"
b1110 %
b1110 ?
b1110 ~
b1110 A"
b1111111111111111 0
b1111111111111111 ("
b1111111111111111 P"
b0 d
b0 n
b0 f
b0 r
b0 c
b1111111111111111 !
b1111111111111111 1
b1111111111111111 v
b1111111111111111 '"
b1111111111111111 1"
b0 (
b0 E
b0 u
b0 M"
b0 &
b0 C
b0 &"
b0 O"
b0 +
b0 O
b0 ="
b0 C"
b1111111111111110 E"
1-
#115000
0-
#120000
b0 \
b0 g
b0 ]
b0 ^
b0 o
b0 h
b0 _
b0 `
b0 i
b0 a
b0 T
b0 m
b0 p
b0 j
b0 U
b0 V
b0 k
b0 W
b0 e
b0 l
b0 X
b1111111111111110 d
b1111111111111110 n
b1111111111111110 f
b1111111111111110 r
b1111111111111110 c
b1111111111111111 0
b1111111111111111 ("
b1111111111111111 P"
b1111111111111111 !
b1111111111111111 1
b1111111111111111 v
b1111111111111111 '"
b1111111111111111 1"
b1 Q
b1 s
b1 %"
b1 ;
b1 z
b1 $"
b1 $
b1 :
b1 y
b1 }
b1111111111111110 &
b1111111111111110 C
b1111111111111110 &"
b1111111111111110 O"
b1 '
b1 D
b1 !"
b1 N"
b1111111111111110 (
b1111111111111110 E
b1111111111111110 u
b1111111111111110 M"
b1 )
b1 F
b1 ""
b1 L"
b1111111111111110 +
b1111111111111110 O
b1111111111111110 ="
b1111111111111110 C"
b1 ,
b1 P
b1 #"
b1 B"
b0 "
b0 5
b0 {
b0 S
b0 t
b0 x
0J
1G
1R
b1110 7
b1110 ,"
b1110 @"
b1001100001 #
b1001100001 9
b1001100001 w
b1001100001 |
b10000 =
b10000 +"
b1110 >
b1110 *"
b1100 %
b1100 ?
b1100 ~
b1100 A"
1-
#125000
0-
#130000
b0 Q
b0 s
b0 %"
b1111111111111110 ;
b1111111111111110 z
b1111111111111110 $"
b11110 $
b11110 :
b11110 y
b11110 }
b110 '
b110 D
b110 !"
b110 N"
b0 )
b0 F
b0 ""
b0 L"
b110 ,
b110 P
b110 #"
b110 B"
b1101 "
b1101 5
b1101 {
b1111 S
b1111 t
b1111 x
0G
0R
1J
b1100 7
b1100 ,"
b1100 @"
b111111 *
b111111 N
b111111 )"
b111111 ?"
b1101110000011110 #
b1101110000011110 9
b1101110000011110 w
b1101110000011110 |
b1100 =
b1100 +"
b10000 >
b10000 *"
b1110 %
b1110 ?
b1110 ~
b1110 A"
b0 0
b0 ("
b0 P"
b0 d
b0 n
b0 f
b0 r
b0 c
08
1/
b0 !
b0 1
b0 v
b0 '"
b0 1"
b0 (
b0 E
b0 u
b0 M"
b0 &
b0 C
b0 &"
b0 O"
b0 +
b0 O
b0 ="
b0 C"
b1111111111111111 E"
1-
#135000
0-
#140000
b111111 *
b111111 N
b111111 )"
b111111 ?"
b0 \
b0 g
b0 ]
b0 ^
b0 o
b0 h
b0 _
b0 `
b0 i
b0 a
b0 T
b0 m
b0 p
b0 j
b0 U
b0 V
b0 k
b0 W
b0 e
b0 l
b0 X
b1111111111111111 d
b1111111111111111 n
b1111111111111111 f
b1111111111111111 r
b1111111111111111 c
b0 0
b0 ("
b0 P"
1/
08
b0 !
b0 1
b0 v
b0 '"
b0 1"
b1 Q
b1 s
b1 %"
b1 ;
b1 z
b1 $"
b1 $
b1 :
b1 y
b1 }
b1111111111111111 &
b1111111111111111 C
b1111111111111111 &"
b1111111111111111 O"
b1 '
b1 D
b1 !"
b1 N"
b1111111111111111 (
b1111111111111111 E
b1111111111111111 u
b1111111111111111 M"
b1 )
b1 F
b1 ""
b1 L"
b1111111111111111 +
b1111111111111111 O
b1111111111111111 ="
b1111111111111111 C"
b1 ,
b1 P
b1 #"
b1 B"
b0 "
b0 5
b0 {
b0 S
b0 t
b0 x
0J
1G
1R
b1110 7
b1110 ,"
b1110 @"
b1001100001 #
b1001100001 9
b1001100001 w
b1001100001 |
b10000 =
b10000 +"
b1110 >
b1110 *"
b1100 %
b1100 ?
b1100 ~
b1100 A"
1-
#145000
0-
#150000
b0 Q
b0 s
b0 %"
b1111111111111110 ;
b1111111111111110 z
b1111111111111110 $"
b11110 $
b11110 :
b11110 y
b11110 }
b110 '
b110 D
b110 !"
b110 N"
b0 )
b0 F
b0 ""
b0 L"
b110 ,
b110 P
b110 #"
b110 B"
b1101 "
b1101 5
b1101 {
b1111 S
b1111 t
b1111 x
0G
0R
b10000 7
b10000 ,"
b10000 @"
b11111100000000 *
b11111100000000 N
b11111100000000 )"
b11111100000000 ?"
b1101110000011110 #
b1101110000011110 9
b1101110000011110 w
b1101110000011110 |
b1100 =
b1100 +"
b10000 >
b10000 *"
b1110 %
b1110 ?
b1110 ~
b1110 A"
b1 0
b1 ("
b1 P"
b0 d
b0 n
b0 f
b0 r
b0 c
0/
14
b1 !
b1 1
b1 v
b1 '"
b1 1"
b0 (
b0 E
b0 u
b0 M"
b0 &
b0 C
b0 &"
b0 O"
b0 +
b0 O
b0 ="
b0 C"
b0 E"
1-
#155000
0-
#160000
b111111 *
b111111 N
b111111 )"
b111111 ?"
b0 0
b0 ("
b0 P"
04
1/
b0 !
b0 1
b0 v
b0 '"
b0 1"
b1 ;
b1 z
b1 $"
b1 $
b1 :
b1 y
b1 }
b1 '
b1 D
b1 !"
b1 N"
b0 ,
b0 P
b0 #"
b0 B"
b1110 "
b1110 5
b1110 {
b10 S
b10 t
b10 x
1J
b10100 7
b10100 ,"
b10100 @"
b1110000000000001 #
b1110000000000001 9
b1110000000000001 w
b1110000000000001 |
b10100 =
b10100 +"
b10010 >
b10010 *"
b10000 %
b10000 ?
b10000 ~
b10000 A"
1-
#165000
0-
#170000
b11111 ;
b11111 z
b11111 $"
b11111 $
b11111 :
b11111 y
b11111 }
b111 '
b111 D
b111 !"
b111 N"
b111 )
b111 F
b111 ""
b111 L"
b111 ,
b111 P
b111 #"
b111 B"
b1111 "
b1111 5
b1111 {
b1111 S
b1111 t
b1111 x
0M
0L
0A
b1010100 7
b1010100 ,"
b1010100 @"
b1111111111111111 #
b1111111111111111 9
b1111111111111111 w
b1111111111111111 |
b1010100 =
b1010100 +"
b10110 >
b10110 *"
b10100 %
b10100 ?
b10100 ~
b10100 A"
1-
